Use of R in EDA · Portfolio website for Yichun Hou
…
Returns of financial stocks

You may find useful the material on finance data sources.

We will use the tidyquant package to download historical data of stock prices, calculate returns, and examine the distribution of returns.

We must first identify which stocks we want to download data for

nyse <- read_csv(here::here("data","nyse.csv"))

#Sanity checks
nyse%>%
  arrange(desc(sector))

## # A tibble: 508 x 6
##    symbol name           ipo_year sector    industry         summary_quote      
##    <chr>  <chr>          <chr>    <chr>     <chr>            <chr>              
##  1 CNI    Canadian Nati… n/a      Transpor… Railroads        https://www.nasdaq…
##  2 CP     Canadian Paci… n/a      Transpor… Railroads        https://www.nasdaq…
##  3 DAL    Delta Air Lin… n/a      Transpor… Air Freight/Del… https://www.nasdaq…
##  4 FDX    FedEx Corpora… n/a      Transpor… Air Freight/Del… https://www.nasdaq…
##  5 KSU    Kansas City S… n/a      Transpor… Railroads        https://www.nasdaq…
##  6 NSC    Norfolk South… n/a      Transpor… Railroads        https://www.nasdaq…
##  7 LUV    Southwest Air… n/a      Transpor… Air Freight/Del… https://www.nasdaq…
##  8 UNP    Union Pacific… n/a      Transpor… Railroads        https://www.nasdaq…
##  9 UPS    United Parcel… 1999     Transpor… Trucking Freigh… https://www.nasdaq…
## 10 ZTO    ZTO Express (… 2016     Transpor… Trucking Freigh… https://www.nasdaq…
## # … with 498 more rows
…
